<svg width="154" height="156" viewBox="0 0 154 156" fill="none" xmlns="http://www.w3.org/2000/svg">
<path d="M65.1914 15.1992C65.1914 14.6469 65.6391 14.1992 66.1914 14.1992H99.1914C99.7437 14.1992 100.191 14.6469 100.191 15.1992V154.199C100.191 154.752 99.7437 155.199 99.1914 155.199H66.1914C65.6391 155.199 65.1914 154.752 65.1914 154.199V15.1992Z" fill="#22F55D"/>
<path d="M65.1914 15.1992C65.1914 14.6469 65.6391 14.1992 66.1914 14.1992H99.1914C99.7437 14.1992 100.191 14.6469 100.191 15.1992V154.199C100.191 154.752 99.7437 155.199 99.1914 155.199H66.1914C65.6391 155.199 65.1914 154.752 65.1914 154.199V15.1992Z" fill="#22F55D"/>
<path d="M152.191 67.1992C152.744 67.1992 153.191 67.6469 153.191 68.1992V101.199C153.191 101.751 152.744 102.199 152.191 102.199L13.1914 102.199C12.6391 102.199 12.1914 101.751 12.1914 101.199L12.1914 68.1992C12.1914 67.6469 12.6391 67.1992 13.1914 67.1992L152.191 67.1992Z" fill="#22F55D"/>
<path d="M119.473 23.1837C119.863 22.7931 120.496 22.7931 120.887 23.1837L144.221 46.5182C144.612 46.9087 144.612 47.5419 144.221 47.9324L45.9335 146.22C45.543 146.611 44.9098 146.611 44.5193 146.22L21.1847 122.886C20.7942 122.495 20.7942 121.862 21.1847 121.472L119.473 23.1837Z" fill="#22F55D"/>
<path d="M144.223 121.473C144.613 121.863 144.613 122.496 144.223 122.887L120.888 146.221C120.498 146.612 119.864 146.612 119.474 146.221L21.186 47.9335C20.7955 47.5429 20.7955 46.9098 21.186 46.5192L44.5205 23.1847C44.9111 22.7942 45.5442 22.7942 45.9347 23.1847L144.223 121.473Z" fill="#22F55D"/>
<path d="M13.9286 37.9286L29.0858 53.0858C30.3457 54.3457 29.4534 56.5 27.6716 56.5H6C4.89543 56.5 4 57.3954 4 58.5V89.5C4 90.6046 4.89543 91.5 6 91.5H27.6716C29.4534 91.5 30.3457 93.6543 29.0858 94.9142L13.8856 110.114C13.1158 110.884 13.1032 112.128 13.8571 112.914L35.1037 135.046C35.873 135.847 37.148 135.868 37.9431 135.092L53.6034 119.814C54.8702 118.578 57 119.475 57 121.245V142.5C57 143.605 57.8954 144.5 59 144.5H90C91.1046 144.5 92 143.605 92 142.5V121.328C92 119.547 94.1543 118.654 95.4142 119.914L110.586 135.086C111.367 135.867 112.633 135.867 113.414 135.086L135.586 112.914C136.367 112.133 136.367 110.867 135.586 110.086L120.414 94.9142C119.154 93.6543 120.047 91.5 121.828 91.5H143C144.105 91.5 145 90.6046 145 89.5V58.5C145 57.3954 144.105 56.5 143 56.5H121.828C120.047 56.5 119.154 54.3457 120.414 53.0858L135.571 37.9286C136.358 37.1419 136.352 35.8646 135.557 35.0859L113.396 13.3684C112.62 12.6076 111.378 12.6061 110.6 13.3648L95.3962 28.1887C94.1291 29.4241 92 28.5263 92 26.7567V6C92 4.89543 91.1046 4 90 4H59C57.8954 4 57 4.89543 57 6V26.6716C57 28.4534 54.8457 29.3457 53.5858 28.0858L38.9 13.4C38.1245 12.6245 36.8692 12.6182 36.0859 13.3858L13.9429 35.0859C13.1484 35.8646 13.1419 37.1419 13.9286 37.9286Z" stroke="black" stroke-width="8"/>
</svg>
