<svg width="238" height="75" viewBox="0 0 238 75" fill="none" xmlns="http://www.w3.org/2000/svg">

<rect y="0.5" width="238" height="74.5" rx="37.25" fill="#47F86A"/>
<path d="M156.031 22.7031V28.554M123.916 22.7031L156.031 52.3477V37.5254" stroke="black" stroke-width="5.85573" stroke-linecap="round" stroke-linejoin="round"/>
<path d="M32.5117 52.3477V22.703L39.9229 30.1142L43.6284 33.8198M62.1563 22.703V52.3477L54.7452 44.9365L51.0396 41.2309" stroke="black" stroke-width="5.85573" stroke-linecap="round" stroke-linejoin="round"/>
<path d="M107.559 22.7031C110.06 25.8379 111.564 29.8711 111.564 34.2716C111.564 44.2548 103.822 52.3477 94.2712 52.3477C84.7207 52.3477 76.9785 44.2548 76.9785 34.2716C76.9785 29.8711 78.4828 25.8379 80.9831 22.7031" stroke="black" stroke-width="5.85573" stroke-linecap="round"/>
<circle cx="188.146" cy="37.5271" r="17.2927" stroke="black" stroke-width="5.85573"/>

<defs>
<rect width="238" height="74.5" fill="white" transform="translate(0 0.5)"/>
</defs>
</svg>
