<svg width="408" height="149" viewBox="0 0 408 149" fill="none" xmlns="http://www.w3.org/2000/svg">
<rect x="4" y="4" width="400" height="141" rx="70.5" stroke="black" stroke-width="8"/>
<path d="M270.621 48.4883V59.3518M216.234 48.4883L270.621 103.53V76.0092" stroke="black" stroke-width="7.86313" stroke-linecap="round" stroke-linejoin="round"/>
<path d="M51.7656 103.531V48.4893L65.3623 62.2498L72.1606 69.1301M106.152 48.4893V103.531L92.5556 89.7708L85.7573 82.8905" stroke="black" stroke-width="7.86313" stroke-linecap="round" stroke-linejoin="round"/>
<path d="M188.151 51.1094C192.652 56.6526 195.359 63.7846 195.359 71.566C195.359 89.2194 181.424 103.53 164.234 103.53C147.044 103.53 133.109 89.2194 133.109 71.566C133.109 63.7846 135.817 56.6526 140.317 51.1094" stroke="black" stroke-width="7.86313" stroke-linecap="round"/>
<circle cx="326.975" cy="74.0453" r="29.4867" stroke="black" stroke-width="7.86313"/>
</svg>
