<svg width="74" height="74" viewBox="0 0 74 74" fill="none" xmlns="http://www.w3.org/2000/svg">
<path fill-rule="evenodd" clip-rule="evenodd" d="M43.7648 11.9205C42.9487 10.5489 42.2136 9.11154 41.4466 7.41887C39.3565 2.80629 38.3115 0.5 36.7409 0.5C35.1703 0.5 34.1252 2.80629 32.0352 7.41887C31.2682 9.11154 30.533 10.5489 29.7169 11.9205C25.2924 19.3563 19.0457 25.5501 11.5626 29.921C10.1917 30.7218 8.74818 31.4456 7.04505 32.2017C2.34835 34.2867 -1.0014e-06 35.3293 0 36.9038C1.0014e-06 38.4783 2.34836 39.5209 7.04507 41.6059C8.74819 42.362 10.1917 43.0858 11.5626 43.8865C19.0457 48.2575 25.2924 54.4513 29.7169 61.8871C30.533 63.2587 31.2682 64.696 32.0351 66.3887C34.1252 71.0013 35.1703 73.3076 36.7409 73.3076C38.3115 73.3076 39.3565 71.0013 41.4466 66.3887C42.2136 64.696 42.9487 63.2587 43.7648 61.8871C48.1893 54.4513 54.436 48.2575 61.9192 43.8865C63.29 43.0858 64.7336 42.362 66.4367 41.6059C71.1334 39.5208 73.4817 38.4783 73.4817 36.9038C73.4817 35.3293 71.1334 34.2867 66.4367 32.2017C64.7335 31.4456 63.29 30.7218 61.9192 29.921C54.436 25.5501 48.1893 19.3563 43.7648 11.9205Z" fill="black"/>
</svg>
